…
``` r
library(dplyr)
laquinta %>%
summarize(state)
```

    ## Warning: Returning more (or less) than 1 row per `summarise()` group was deprecated in
    ## dplyr 1.1.0.
    ## ℹ Please use `reframe()` instead.
    ## ℹ When switching from `summarise()` to `reframe()`, remember that `reframe()`
    ##   always returns an ungrouped data frame and adjust accordingly.
    ## Call `lifecycle::last_lifecycle_warnings()` to see where this warning was
    ## generated.

    ## # A tibble: 909 × 1
    ##    state
    ##    <chr>
    ##  1 MD   
    ##  2 TX   
    ##  3 TX   
    ##  4 GA   
    ##  5 OK   
    ##  6 TX   
    ##  7 AG   
    ##  8 TX   
    ##  9 NM   
    ## 10 NM   
    ## # ℹ 899 more rows
…
``` r
laquinta_country <- laquinta %>%
  mutate(country = case_when(
    state %in% state.abb ~ "United States",
    state %in% c("ON", "BC") ~ "Canada",
    state == "ANT" ~ "Colombia",
    state %in% c("AG", "QR", "CH", "NL","VE", "PU", "SL") ~"Mexico", 
    state == "FM" ~ "Honduras"
  )) %>% 
filter(country == "United States")
print(laquinta_country)
```

    ## # A tibble: 895 × 7
    ##    address                         city   state zip   longitude latitude country
    ##    <chr>                           <chr>  <chr> <chr>     <dbl>    <dbl> <chr>  
    ##  1 793 W. Bel Air Avenue           "\nAb… MD    21001     -76.2     39.5 United…
    ##  2 3018 CatClaw Dr                 "\nAb… TX    79606     -99.8     32.4 United…
    ##  3 3501 West Lake Rd               "\nAb… TX    79601     -99.7     32.5 United…
    ##  4 184 North Point Way             "\nAc… GA    30102     -84.7     34.1 United…
    ##  5 2828 East Arlington Street      "\nAd… OK    74820     -96.6     34.8 United…
    ##  6 14925 Landmark Blvd             "\nAd… TX    75254     -96.8     33.0 United…
    ##  7 909 East Frontage Rd            "\nAl… TX    78516     -98.1     26.2 United…
    ##  8 2116 Yale Blvd Southeast        "\nAl… NM    87106    -107.      35.1 United…
    ##  9 7439 Pan American Fwy Northeast "\nAl… NM    87109    -107.      35.2 United…
    ## 10 2011 Menaul Blvd Northeast      "\nAl… NM    87107    -107.      35.1 United…
    ## # ℹ 885 more rows

### Exercise 9

``` r
dennys %>% 
  count(state) %>% 
  arrange(desc(n))
```

    ## # A tibble: 51 × 2
    ##    state     n
    ##    <chr> <int>
    ##  1 CA      403
    ##  2 TX      200
    ##  3 FL      140
    ##  4 AZ       83
    ##  5 IL       56
    ##  6 NY       56
    ##  7 WA       49
    ##  8 OH       44
    ##  9 MO       42
    ## 10 PA       40
    ## # ℹ 41 more rows

``` r
laquinta_country %>% 
  count(state) %>% 
  arrange(desc(n))
```

    ## # A tibble: 48 × 2
    ##    state     n
    ##    <chr> <int>
    ##  1 TX      237
    ##  2 FL       74
    ##  3 CA       56
    ##  4 GA       41
    ##  5 TN       30
    ##  6 OK       29
    ##  7 LA       28
    ##  8 CO       27
    ##  9 NM       19
    ## 10 NY       19
    ## # ℹ 38 more rows
…
#### States with most and least La Quinta locations.

Texas has the most La Quinta locations, which I don’t find surprising as
Texas has the second highest population in the U.S., and the La Quinta
headquarters are in Texas.

``` r
dennys %>%
  count(state) %>%
  inner_join(states, by = c("state" = "abbreviation"))
```

    ## # A tibble: 51 × 4
    ##    state     n name                     area
    ##    <chr> <int> <chr>                   <dbl>
    ##  1 AK        3 Alaska               665384. 
    ##  2 AL        7 Alabama               52420. 
    ##  3 AR        9 Arkansas              53179. 
    ##  4 AZ       83 Arizona              113990. 
    ##  5 CA      403 California           163695. 
    ##  6 CO       29 Colorado             104094. 
    ##  7 CT       12 Connecticut            5543. 
    ##  8 DC        2 District of Columbia     68.3
    ##  9 DE        1 Delaware               2489. 
    ## 10 FL      140 Florida               65758. 
    ## # ℹ 41 more rows
…
